…
- 10% of data is taken randomly using `randomSplit()` for exploratory analysis - 727,530 records
- filter out if *arr_delay* or *dep_delay* is *NA*
- *month*, *weekday*, *is_weekend*, *dep_hour*, *arr_hour* and *is_delay* are created 
- take only if not cancelled (*cancelled == 0*)

```{r flight_04, , eval=FALSE}
dat_s %>% select(-unique_carrier, -origin, -dest) %>% head()

# A tibble: 727,530 x 13
   unique_carrier air_time arr_delay dep_delay origin dest  distance month weekday is_weekend dep_hour arr_hour is_delay
   <chr>             <int>     <int>     <int> <chr>  <chr>    <int> <int> <fct>        <dbl>    <dbl>    <dbl> <chr>   
 1 CO                  232      -  2         6 PHX    EWR       2133     1 Mon              0        0     6.00 no      
 2 YV                   80        16         8 LAS    ELP        584     1 Mon              0        0     2.00 yes     
 3 US                   59        16         8 LAS    SFO        414     1 Mon              0        0     1.00 yes     
 4 B6                   75       137       153 JFK    CMH        483     1 Mon              0        0     2.00 yes     
 5 US                   67        31        19 LAS    ABQ        487     1 Mon              0        0     2.00 yes     
 6 WN                  115       189       207 FLL    BWI        925     1 Mon              0        0     2.00 yes     
 7 YV                   64        39        26 LAS    SLC        368     1 Mon              0        0     2.00 yes     
 8 UA                  199        44        21 SEA    ORD       1721     1 Mon              0        0     6.00 yes     
 9 US                   60        22        21 LAS    OAK        407     1 Mon              0        0     1.00 yes     
10 AA                  165       200       204 LGA    MIA       1097     1 Mon              0        0     3.00 yes     
# ... with 727,520 more rows
```
…
